%YAML 1.1
%TAG !u! tag:unity3d.com,2011:
--- !u!74 &7400000
AnimationClip:
  m_ObjectHideFlags: 0
  m_CorrespondingSourceObject: {fileID: 0}
  m_PrefabInstance: {fileID: 0}
  m_PrefabAsset: {fileID: 0}
  m_Name: atacar
  serializedVersion: 6
  m_Legacy: 0
  m_Compressed: 0
  m_UseHighQualityCurve: 1
  m_RotationCurves: []
  m_CompressedRotationCurves: []
  m_EulerCurves: []
  m_PositionCurves: []
  m_ScaleCurves: []
  m_FloatCurves: []
  m_PPtrCurves:
  - curve:
    - time: 0
      value: {fileID: 21300000, guid: 87f869dee49f9894a8903af9caef64a6, type: 3}
    - time: 0.083333336
      value: {fileID: 21300000, guid: 157768340bc54344b854d036a9c7ec90, type: 3}
    - time: 0.16666667
      value: {fileID: 21300000, guid: 5ee90999792d71d419c11c0c6b930c63, type: 3}
    - time: 0.25
      value: {fileID: 21300000, guid: eac0b6da2c8ce9642b9e5201da3fd44e, type: 3}
    - time: 0.33333334
      value: {fileID: 21300000, guid: 059d5f567c44cc94ebc08eecf495ba92, type: 3}
    - time: 0.41666666
      value: {fileID: 21300000, guid: 9d2633ff34c4f6a4cb7ea6bb34bbd4a6, type: 3}
    - time: 0.5
      value: {fileID: 21300000, guid: 0a38891c17020834089f95544aa3cb24, type: 3}
    - time: 0.5833333
      value: {fileID: 21300000, guid: 63c7952a1a9ae744886de809ca0b0607, type: 3}
    - time: 0.6666667
      value: {fileID: 21300000, guid: 2cf900ba63504f24da17130aefdfbcb5, type: 3}
    - time: 0.75
      value: {fileID: 21300000, guid: 636ab0007ebedfb47a2d412652f74c2b, type: 3}
    attribute: m_Sprite
    path: 
    classID: 212
    script: {fileID: 0}
  m_SampleRate: 12
  m_WrapMode: 0
  m_Bounds:
    m_Center: {x: 0, y: 0, z: 0}
    m_Extent: {x: 0, y: 0, z: 0}
  m_ClipBindingConstant:
    genericBindings:
    - serializedVersion: 2
      path: 0
      attribute: 0
      script: {fileID: 0}
      typeID: 212
      customType: 23
      isPPtrCurve: 1
    pptrCurveMapping:
    - {fileID: 21300000, guid: 87f869dee49f9894a8903af9caef64a6, type: 3}
    - {fileID: 21300000, guid: 157768340bc54344b854d036a9c7ec90, type: 3}
    - {fileID: 21300000, guid: 5ee90999792d71d419c11c0c6b930c63, type: 3}
    - {fileID: 21300000, guid: eac0b6da2c8ce9642b9e5201da3fd44e, type: 3}
    - {fileID: 21300000, guid: 059d5f567c44cc94ebc08eecf495ba92, type: 3}
    - {fileID: 21300000, guid: 9d2633ff34c4f6a4cb7ea6bb34bbd4a6, type: 3}
    - {fileID: 21300000, guid: 0a38891c17020834089f95544aa3cb24, type: 3}
    - {fileID: 21300000, guid: 63c7952a1a9ae744886de809ca0b0607, type: 3}
    - {fileID: 21300000, guid: 2cf900ba63504f24da17130aefdfbcb5, type: 3}
    - {fileID: 21300000, guid: 636ab0007ebedfb47a2d412652f74c2b, type: 3}
  m_AnimationClipSettings:
    serializedVersion: 2
    m_AdditiveReferencePoseClip: {fileID: 0}
    m_AdditiveReferencePoseTime: 0
    m_StartTime: 0
    m_StopTime: 0.8333333
    m_OrientationOffsetY: 0
    m_Level: 0
    m_CycleOffset: 0
    m_HasAdditiveReferencePose: 0
    m_LoopTime: 1
    m_LoopBlend: 0
    m_LoopBlendOrientation: 0
    m_LoopBlendPositionY: 0
    m_LoopBlendPositionXZ: 0
    m_KeepOriginalOrientation: 0
    m_KeepOriginalPositionY: 1
    m_KeepOriginalPositionXZ: 0
    m_HeightFromFeet: 0
    m_Mirror: 0
  m_EditorCurves: []
  m_EulerEditorCurves: []
  m_HasGenericRootTransform: 0
  m_HasMotionFloatCurves: 0
  m_Events: []
